%YAML 1.1
%TAG !u! tag:unity3d.com,2011:
--- !u!1001 &424085067731146180
PrefabInstance:
  m_ObjectHideFlags: 0
  serializedVersion: 2
  m_Modification:
    m_TransformParent: {fileID: 0}
    m_Modifications:
    - target: {fileID: 2155482230604930615, guid: 526f9658d0ebde64a87cf3c3362f17fe,
        type: 3}
      propertyPath: m_fontStyle
      value: 1
      objectReference: {fileID: 0}
    - target: {fileID: 2155482230604930615, guid: 526f9658d0ebde64a87cf3c3362f17fe,
        type: 3}
      propertyPath: m_fontColor.b
      value: 1
      objectReference: {fileID: 0}
    - target: {fileID: 2155482230604930615, guid: 526f9658d0ebde64a87cf3c3362f17fe,
        type: 3}
      propertyPath: m_fontColor.g
      value: 1
      objectReference: {fileID: 0}
    - target: {fileID: 2155482230604930615, guid: 526f9658d0ebde64a87cf3c3362f17fe,
        type: 3}
      propertyPath: m_fontColor.r
      value: 1
      objectReference: {fileID: 0}
    - target: {fileID: 2155482230604930615, guid: 526f9658d0ebde64a87cf3c3362f17fe,
        type: 3}
      propertyPath: m_fontColor32.rgba
      value: 4294967295
      objectReference: {fileID: 0}
    - target: {fileID: 3785423630202672528, guid: 526f9658d0ebde64a87cf3c3362f17fe,
        type: 3}
      propertyPath: m_AnchoredPosition.y
      value: 0.461
      objectReference: {fileID: 0}
    - target: {fileID: 7841215804267942714, guid: 526f9658d0ebde64a87cf3c3362f17fe,
        type: 3}
      propertyPath: m_RootOrder
      value: 0
      objectReference: {fileID: 0}
    - target: {fileID: 7841215804267942714, guid: 526f9658d0ebde64a87cf3c3362f17fe,
        type: 3}
      propertyPath: m_LocalPosition.x
      value: 0
      objectReference: {fileID: 0}
    - target: {fileID: 7841215804267942714, guid: 526f9658d0ebde64a87cf3c3362f17fe,
        type: 3}
      propertyPath: m_LocalPosition.y
      value: 0.468
      objectReference: {fileID: 0}
    - target: {fileID: 7841215804267942714, guid: 526f9658d0ebde64a87cf3c3362f17fe,
        type: 3}
      propertyPath: m_LocalPosition.z
      value: 0.732
      objectReference: {fileID: 0}
    - target: {fileID: 7841215804267942714, guid: 526f9658d0ebde64a87cf3c3362f17fe,
        type: 3}
      propertyPath: m_LocalRotation.w
      value: 1
      objectReference: {fileID: 0}
    - target: {fileID: 7841215804267942714, guid: 526f9658d0ebde64a87cf3c3362f17fe,
        type: 3}
      propertyPath: m_LocalRotation.x
      value: -0
      objectReference: {fileID: 0}
    - target: {fileID: 7841215804267942714, guid: 526f9658d0ebde64a87cf3c3362f17fe,
        type: 3}
      propertyPath: m_LocalRotation.y
      value: -0
      objectReference: {fileID: 0}
    - target: {fileID: 7841215804267942714, guid: 526f9658d0ebde64a87cf3c3362f17fe,
        type: 3}
      propertyPath: m_LocalRotation.z
      value: -0
      objectReference: {fileID: 0}
    - target: {fileID: 7841215804267942714, guid: 526f9658d0ebde64a87cf3c3362f17fe,
        type: 3}
      propertyPath: m_LocalEulerAnglesHint.x
      value: 0
      objectReference: {fileID: 0}
    - target: {fileID: 7841215804267942714, guid: 526f9658d0ebde64a87cf3c3362f17fe,
        type: 3}
      propertyPath: m_LocalEulerAnglesHint.y
      value: 0
      objectReference: {fileID: 0}
    - target: {fileID: 7841215804267942714, guid: 526f9658d0ebde64a87cf3c3362f17fe,
        type: 3}
      propertyPath: m_LocalEulerAnglesHint.z
      value: 0
      objectReference: {fileID: 0}
    - target: {fileID: 8089022227894131851, guid: 526f9658d0ebde64a87cf3c3362f17fe,
        type: 3}
      propertyPath: m_Name
      value: BoxCard
      objectReference: {fileID: 0}
    - target: {fileID: 8845734684579811431, guid: 526f9658d0ebde64a87cf3c3362f17fe,
        type: 3}
      propertyPath: m_Color.b
      value: 0.3915094
      objectReference: {fileID: 0}
    - target: {fileID: 8845734684579811431, guid: 526f9658d0ebde64a87cf3c3362f17fe,
        type: 3}
      propertyPath: m_Color.g
      value: 0.3915094
      objectReference: {fileID: 0}
    - target: {fileID: 8845734684579811431, guid: 526f9658d0ebde64a87cf3c3362f17fe,
        type: 3}
      propertyPath: m_Color.r
      value: 1
      objectReference: {fileID: 0}
    m_RemovedComponents: []
  m_SourcePrefab: {fileID: 100100000, guid: 526f9658d0ebde64a87cf3c3362f17fe, type: 3}
