{
  "project_info": {
    "project_number": "724650913793",
    "firebase_url": "https://tpk2-43ac5-default-rtdb.europe-west1.firebasedatabase.app",
    "project_id": "tpk2-43ac5",
    "storage_bucket": "tpk2-43ac5.appspot.com"
  },
  "client": [
    {
      "client_info": {
        "mobilesdk_app_id": "1:724650913793:android:b2b9a420a961febab0d000",
        "android_client_info": {
          "package_name": "com.Mazhavil.TPK2"
        }
      },
      "oauth_client": [
        {
          "client_id": "724650913793-ji9a3jvg9u2u7rr589ti9ha9bns0jotl.apps.googleusercontent.com",
          "client_type": 3
        }
      ],
      "api_key": [
        {
          "current_key": "AIzaSyCPyc9CqJXSvEb4s03_8s84kydFQ_R5fV8"
        }
      ],
      "services": {
        "appinvite_service": {
          "other_platform_oauth_client": [
            {
              "client_id": "724650913793-ji9a3jvg9u2u7rr589ti9ha9bns0jotl.apps.googleusercontent.com",
              "client_type": 3
            }
          ]
        }
      }
    }
  ],
  "configuration_version": "1"
}