%YAML 1.1
%TAG !u! tag:unity3d.com,2011:
--- !u!114 &11400000
MonoBehaviour:
  m_ObjectHideFlags: 0
  m_CorrespondingSourceObject: {fileID: 0}
  m_PrefabInstance: {fileID: 0}
  m_PrefabAsset: {fileID: 0}
  m_GameObject: {fileID: 0}
  m_Enabled: 1
  m_EditorHideFlags: 0
  m_Script: {fileID: 11500000, guid: cc41d701ddf64a4f9faf1dac3ba2ff6a, type: 3}
  m_Name: Lich
  m_EditorClassIdentifier: 
  MonsterTypeId: 0
  HP: 5
  Damage: 5
  MoveSpeed: 4
  EffectiveDistance: 0.5
  Cleavage: 0.5
  Prefab: {fileID: 6995413829786734503, guid: e724a78dc9e44e345920656c828b694c, type: 3}
